module gitlab.com/ngilmant/training-go

go 1.12

require (
	cloud.google.com/go v0.40.0 // indirect
	github.com/coreos/bbolt v1.3.3 // indirect
	github.com/coreos/etcd v3.3.13+incompatible // indirect
	github.com/coreos/go-semver v0.3.0 // indirect
	github.com/coreos/go-systemd v0.0.0-20190620071333-e64a0ec8b42a // indirect
	github.com/golang/mock v1.3.1 // indirect
	github.com/google/pprof v0.0.0-20190515194954-54271f7e092f // indirect
	github.com/googleapis/gax-go/v2 v2.0.5 // indirect
	github.com/gorilla/mux v1.7.2
	github.com/grpc-ecosystem/grpc-gateway v1.9.2 // indirect
	github.com/kisielk/errcheck v1.2.0 // indirect
	github.com/konsorten/go-windows-terminal-sequences v1.0.2 // indirect
	github.com/kr/pty v1.1.5 // indirect
	github.com/magiconair/properties v1.8.1 // indirect
	github.com/pelletier/go-toml v1.4.0 // indirect
	github.com/pkg/errors v0.8.1 // indirect
	github.com/prometheus/common v0.6.0 // indirect
	github.com/prometheus/procfs v0.0.3 // indirect
	github.com/rogpeppe/fastuuid v1.1.0 // indirect
	github.com/russross/blackfriday v2.0.0+incompatible // indirect
	github.com/sirupsen/logrus v1.4.2 // indirect
	github.com/spf13/afero v1.2.2 // indirect
	github.com/spf13/cobra v0.0.5
	github.com/spf13/jwalterweatherman v1.1.0 // indirect
	github.com/spf13/viper v1.4.0 // indirect
	github.com/stretchr/objx v0.2.0 // indirect
	github.com/stretchr/testify v1.3.0
	github.com/ugorji/go v1.1.5-pre // indirect
	go.etcd.io/bbolt v1.3.3 // indirect
	go.opencensus.io v0.22.0 // indirect
	golang.org/x/crypto v0.0.0-20190621222207-cc06ce4a13d4 // indirect
	golang.org/x/exp v0.0.0-20190510132918-efd6b22b2522 // indirect
	golang.org/x/image v0.0.0-20190622003408-7e034cad6442 // indirect
	golang.org/x/mobile v0.0.0-20190607214518-6fa95d984e88 // indirect
	golang.org/x/net v0.0.0-20190620200207-3b0461eec859 // indirect
	golang.org/x/sys v0.0.0-20190626221950-04f50cda93cb // indirect
	golang.org/x/tools v0.0.0-20190627033414-4874f863e654 // indirect
	google.golang.org/api v0.7.0 // indirect
	google.golang.org/appengine v1.6.1 // indirect
	google.golang.org/genproto v0.0.0-20190626174449-989357319d63 // indirect
	google.golang.org/grpc v1.21.1 // indirect
)
